Part 2: Piping and producing single-panel ggplot figures • ubcBIOL548L
…
In addition to making for much more readable code even with fewer comments, a good literate coding language should make it easier for you to translate ideas into code.

In the tidyverse, we will largely use the analogy of variables as nouns and functions as verbs that operate on the nouns.

The main way we will make our code literate however is with the pipe: %>%

What is a pipe?

A pipe, or %>% , is an operator that takes everything on the left and plugs it into the function on the right.

In short: x %>% f(y) is equivalent to f(x, y)

# So:
filter(gapminder, continent == 'Asia')
#> # A tibble: 396 x 6
#>    country     continent  year lifeExp      pop gdpPercap
#>    <fct>       <fct>     <int>   <dbl>    <int>     <dbl>
#>  1 Afghanistan Asia       1952    28.8  8425333      779.
#>  2 Afghanistan Asia       1957    30.3  9240934      821.
#>  3 Afghanistan Asia       1962    32.0 10267083      853.
#>  4 Afghanistan Asia       1967    34.0 11537966      836.
#>  5 Afghanistan Asia       1972    36.1 13079460      740.
#>  6 Afghanistan Asia       1977    38.4 14880372      786.
#>  7 Afghanistan Asia       1982    39.9 12881816      978.
#>  8 Afghanistan Asia       1987    40.8 13867957      852.
#>  9 Afghanistan Asia       1992    41.7 16317921      649.
#> 10 Afghanistan Asia       1997    41.8 22227415      635.
#> # … with 386 more rows

# Can be re-written as:
gapminder %>%
  filter(continent == 'Asia')
#> # A tibble: 396 x 6
#>    country     continent  year lifeExp      pop gdpPercap
#>    <fct>       <fct>     <int>   <dbl>    <int>     <dbl>
#>  1 Afghanistan Asia       1952    28.8  8425333      779.
#>  2 Afghanistan Asia       1957    30.3  9240934      821.
#>  3 Afghanistan Asia       1962    32.0 10267083      853.
#>  4 Afghanistan Asia       1967    34.0 11537966      836.
#>  5 Afghanistan Asia       1972    36.1 13079460      740.
#>  6 Afghanistan Asia       1977    38.4 14880372      786.
#>  7 Afghanistan Asia       1982    39.9 12881816      978.
#>  8 Afghanistan Asia       1987    40.8 13867957      852.
#>  9 Afghanistan Asia       1992    41.7 16317921      649.
#> 10 Afghanistan Asia       1997    41.8 22227415      635.
#> # … with 386 more rows
…
Fig 3 Panel D:

data_D <- read_csv("Fig3D_data.csv")
#> Parsed with column specification:
#> cols(
#>   species = col_character(),
#>   perc_firing = col_double(),
#>   num_bins = col_double()
#> )

# Visualize data
data_D
#> # A tibble: 2,400 x 3
#>    species perc_firing num_bins
#>    <chr>         <dbl>    <dbl>
#>  1 calan          0.5         4
#>  2 calan          0.55        4
#>  3 calan          0.6         4
#>  4 calan          0.65        4
#>  5 calan          0.7         3
#>  6 calan          0.75        3
#>  7 calan          0.8         1
#>  8 calan          0.85        1
#>  9 calan          0.9         1
#> 10 calan          0.95        1
#> # … with 2,390 more rows
…
#>   `1.5` = col_double(),
#>   `2` = col_double(),
#>   `4` = col_double(),
#>   `8` = col_double(),
#>   `16` = col_double(),
#>   `24` = col_double(),
#>   `32` = col_double(),
#>   `48` = col_double(),
#>   `64` = col_double(),
#>   `80` = col_double(),
#>   `128` = col_double(),
#>   `256` = col_double()
#> )
data_E
#> # A tibble: 48 x 3
#>    species speed   prop
#>    <chr>   <chr>  <dbl>
#>  1 hb      0.1   0     
#>  2 zb      0.1   0     
#>  3 pg      0.1   0     
#>  4 hb      0.24  0.0357
#>  5 zb      0.24  0     
#>  6 pg      0.24  0     
#>  7 hb      0.5   0.0179
#>  8 zb      0.5   0     
#>  9 pg      0.5   0.0947
#> 10 hb      1     0     
#> # … with 38 more rows
…
# But wait, the x-axis and species are out of order!
data_E
#> # A tibble: 48 x 3
#>    species speed   prop
#>    <chr>   <chr>  <dbl>
#>  1 hb      0.1   0     
#>  2 zb      0.1   0     
#>  3 pg      0.1   0     
#>  4 hb      0.24  0.0357
#>  5 zb      0.24  0     
#>  6 pg      0.24  0     
#>  7 hb      0.5   0.0179
#>  8 zb      0.5   0     
#>  9 pg      0.5   0.0947
#> 10 hb      1     0     
#> # … with 38 more rows

data_E <- data_E %>%
  mutate(
    species = fct_relevel(species, c("hb","zb","pg")),
    speed = as_factor(as.numeric(speed))
  )
data_E
#> # A tibble: 48 x 3
#>    species speed   prop
#>    <fct>   <fct>  <dbl>
#>  1 hb      0.1   0     
#>  2 zb      0.1   0     
#>  3 pg      0.1   0     
#>  4 hb      0.24  0.0357
#>  5 zb      0.24  0     
#>  6 pg      0.24  0     
#>  7 hb      0.5   0.0179
#>  8 zb      0.5   0     
#>  9 pg      0.5   0.0947
#> 10 hb      1     0     
#> # … with 38 more rows
…
Fig 3 Panel B:

Visualize data:

read_csv("Fig3B_data.csv")
#> Parsed with column specification:
#> cols(
#>   .default = col_double()
#> )
#> See spec(...) for full column specifications.
#> # A tibble: 239 x 23
#>    trial direction    speed  bin1  bin2  bin3  bin4  bin5  bin6  bin7  bin8
#>    <dbl>     <dbl>    <dbl> <dbl> <dbl> <dbl> <dbl> <dbl> <dbl> <dbl> <dbl>
#>  1     1       135   1.90   12.0   4.00  4.00  0     4.00  0     0     0   
#>  2     2       NaN NaN       0     4.00  0     4.00  0     0     0     0   
#>  3     3       315  -0.696   0     4.00  0     0     0     0     4.00  0   
#>  4     4       NaN NaN       0     0     0     0     0     4.00  0     0   
#>  5     5       135  -0.0867  0     0     0     4.00  0     0     0     0   
#>  6     6       NaN NaN       0     0     0     0     0     0     0     0   
#>  7     7       135   0.821  16    24    16    28    36     8.00  8.00  8.00
#>  8     8       NaN NaN       4.00  0     0     0     0     0     0     0   
#>  9     9       315   1.63    0     0     0     0     0     0     0     0   
#> 10    10       NaN NaN       0     4.00 12     0     4.00  0     0     4.00
#> # … with 229 more rows, and 12 more variables: bin9 <dbl>, bin10 <dbl>,
#> #   bin11 <dbl>, bin12 <dbl>, bin13 <dbl>, bin14 <dbl>, bin15 <dbl>,
#> #   bin16 <dbl>, bin17 <dbl>, bin18 <dbl>, bin19 <dbl>, bin20 <dbl>

Gather all the bin data into one column:

read_csv("Fig3B_data.csv") %>%
  gather(key = bin, value = count, starts_with("bin"))
#> Parsed with column specification:
#> cols(
#>   .default = col_double()
#> )
#> See spec(...) for full column specifications.
#> # A tibble: 4,780 x 5
#>    trial direction    speed bin   count
#>    <dbl>     <dbl>    <dbl> <chr> <dbl>
#>  1     1       135   1.90   bin1  12.0 
#>  2     2       NaN NaN      bin1   0   
#>  3     3       315  -0.696  bin1   0   
#>  4     4       NaN NaN      bin1   0   
#>  5     5       135  -0.0867 bin1   0   
#>  6     6       NaN NaN      bin1   0   
#>  7     7       135   0.821  bin1  16   
#>  8     8       NaN NaN      bin1   4.00
#>  9     9       315   1.63   bin1   0   
#> 10    10       NaN NaN      bin1   0   
#> # … with 4,770 more rows

Group the data by trial, direction speed:

read_csv("Fig3B_data.csv") %>%
  gather(key = bin, value = count, starts_with("bin")) %>%
  group_by(trial, direction, speed)
#> Parsed with column specification:
#> cols(
#>   .default = col_double()
#> )
#> See spec(...) for full column specifications.
#> # A tibble: 4,780 x 5
#> # Groups:   trial, direction, speed [239]
#>    trial direction    speed bin   count
#>    <dbl>     <dbl>    <dbl> <chr> <dbl>
#>  1     1       135   1.90   bin1  12.0 
#>  2     2       NaN NaN      bin1   0   
#>  3     3       315  -0.696  bin1   0   
#>  4     4       NaN NaN      bin1   0   
#>  5     5       135  -0.0867 bin1   0   
#>  6     6       NaN NaN      bin1   0   
#>  7     7       135   0.821  bin1  16   
#>  8     8       NaN NaN      bin1   4.00
#>  9     9       315   1.63   bin1   0   
#> 10    10       NaN NaN      bin1   0   
#> # … with 4,770 more rows

Calculate firing rate for each trial:

read_csv("Fig3B_data.csv") %>%
  gather(key = bin, value = count, starts_with("bin")) %>%
  group_by(trial, direction, speed) %>%
  summarize(
    raw_firing_rate = mean(count)
  )
#> Parsed with column specification:
#> cols(
#>   .default = col_double()
#> )
#> See spec(...) for full column specifications.
#> # A tibble: 239 x 4
#> # Groups:   trial, direction [239]
#>    trial direction    speed raw_firing_rate
#>    <dbl>     <dbl>    <dbl>           <dbl>
#>  1     1       135   1.90             2.00 
#>  2     2       NaN NaN                0.400
#>  3     3       315  -0.696            0.800
#>  4     4       NaN NaN                0.400
#>  5     5       135  -0.0867           0.600
#>  6     6       NaN NaN                0    
#>  7     7       135   0.821           11.4  
#>  8     8       NaN NaN                0.200
#>  9     9       315   1.63             0    
#> 10    10       NaN NaN                1.20 
#> # … with 229 more rows
…
data_B_raw <- read_csv("Fig3B_data.csv") %>%
  gather(key = bin, value = count, starts_with("bin")) %>%
  group_by(trial, direction, speed) %>%
  summarize(
    raw_firing_rate = mean(count)
  ) %>%
  ungroup()
#> Parsed with column specification:
#> cols(
#>   .default = col_double()
#> )
#> See spec(...) for full column specifications.
data_B_raw
#> # A tibble: 239 x 4
#>    trial direction    speed raw_firing_rate
#>    <dbl>     <dbl>    <dbl>           <dbl>
#>  1     1       135   1.90             2.00 
#>  2     2       NaN NaN                0.400
#>  3     3       315  -0.696            0.800
#>  4     4       NaN NaN                0.400
#>  5     5       135  -0.0867           0.600
#>  6     6       NaN NaN                0    
#>  7     7       135   0.821           11.4  
#>  8     8       NaN NaN                0.200
#>  9     9       315   1.63             0    
#> 10    10       NaN NaN                1.20 
#> # … with 229 more rows
…
# First calculate a baseline
tail(data_B_raw)
#> # A tibble: 6 x 4
#>   trial direction    speed raw_firing_rate
#>   <dbl>     <dbl>    <dbl>           <dbl>
#> 1   234       NaN NaN                0.400
#> 2   235       315  -0.0867           4.00 
#> 3   236       NaN NaN                0    
#> 4   237       135  -0.696            0.600
#> 5   238       NaN NaN                0.600
#> 6   239       315   0.821            0.200

data_B_raw %>%
  filter(direction == 'NaN')
#> # A tibble: 119 x 4
#>    trial direction speed raw_firing_rate
#>    <dbl>     <dbl> <dbl>           <dbl>
#>  1     2       NaN   NaN           0.400
#>  2     4       NaN   NaN           0.400
#>  3     6       NaN   NaN           0    
#>  4     8       NaN   NaN           0.200
#>  5    10       NaN   NaN           1.20 
#>  6    12       NaN   NaN           0.600
#>  7    14       NaN   NaN           0.800
#>  8    16       NaN   NaN           0.6  
#>  9    18       NaN   NaN           0.200
#> 10    20       NaN   NaN           0.400
#> # … with 109 more rows
…
baseline <- data_B_raw %>%
  filter(direction == 'NaN') %>%
  pull(raw_firing_rate) %>%
  mean
baseline
#> [1] 0.6806833

# Use the baseline to normalize the data
data_B_raw %>%
  filter(direction != 'NaN') %>%
  mutate(
    norm_firing_rate = raw_firing_rate - baseline,
    norm_firing_rate = norm_firing_rate / max(abs(norm_firing_rate))
  )
#> # A tibble: 120 x 5
#>    trial direction   speed raw_firing_rate norm_firing_rate
#>    <dbl>     <dbl>   <dbl>           <dbl>            <dbl>
#>  1     1       135  1.90             2.00           0.0676 
#>  2     3       315 -0.696            0.800          0.00611
#>  3     5       135 -0.0867           0.600         -0.00413
#>  4     7       135  0.821           11.4            0.549  
#>  5     9       315  1.63             0             -0.0349 
#>  6    11       135 -0.401            0.200         -0.0246 
#>  7    13       315  1.90             0             -0.0349 
#>  8    15       135  1.63            20.2            1      
#>  9    17       315 -0.0867           0.200         -0.0246 
#> 10    19       135  1.13            13.2            0.641  
#> # … with 110 more rows

Next let’s find the mean and SE of firing rate across like trials:

data_B_raw %>%
  filter(direction != 'NaN') %>%
  mutate(
    norm_firing_rate = raw_firing_rate - baseline,
    norm_firing_rate = norm_firing_rate / max(abs(norm_firing_rate))
  ) %>%
  group_by(direction, speed) %>%
  summarize(
    firing_rate = mean(norm_firing_rate),
    sem = sd(norm_firing_rate) / sqrt(n())
  )
#> # A tibble: 24 x 4
#> # Groups:   direction [2]
#>    direction   speed firing_rate     sem
#>        <dbl>   <dbl>       <dbl>   <dbl>
#>  1       135 -0.696      -0.0185 0.00832
#>  2       135 -0.401      -0.0246 0.00561
#>  3       135 -0.0867     -0.0164 0.00753
#>  4       135  0.214      -0.0103 0.0132 
#>  5       135  0.524       0.0287 0.0252 
#>  6       135  0.821       0.148  0.101  
#>  7       135  1.13        0.412  0.0661 
#>  8       135  1.30        0.578  0.0902 
#>  9       135  1.43        0.654  0.0572 
#> 10       135  1.63        0.717  0.0812 
#> # … with 14 more rows
…
data_B <- data_B_raw %>%
  filter(direction != 'NaN') %>%
  mutate(
    norm_firing_rate = raw_firing_rate - baseline,
    norm_firing_rate = norm_firing_rate / max(abs(norm_firing_rate))
  ) %>%
  group_by(direction, speed) %>%
  summarize(
    firing_rate = mean(norm_firing_rate),
    sem = sd(norm_firing_rate) / sqrt(n())
  ) %>%
  ungroup() %>%
  mutate(direction = as_factor(direction))
data_B
#> # A tibble: 24 x 4
#>    direction   speed firing_rate     sem
#>    <fct>       <dbl>       <dbl>   <dbl>
#>  1 135       -0.696      -0.0185 0.00832
#>  2 135       -0.401      -0.0246 0.00561
#>  3 135       -0.0867     -0.0164 0.00753
#>  4 135        0.214      -0.0103 0.0132 
#>  5 135        0.524       0.0287 0.0252 
#>  6 135        0.821       0.148  0.101  
#>  7 135        1.13        0.412  0.0661 
#>  8 135        1.30        0.578  0.0902 
#>  9 135        1.43        0.654  0.0572 
#> 10 135        1.63        0.717  0.0812 
#> # … with 14 more rows
…
Fig 3 Panel F:

Visualize data:

read_csv("./Fig3F_data.csv")
#> Parsed with column specification:
#> cols(
#>   .default = col_double()
#> )
#> See spec(...) for full column specifications.
#> # A tibble: 240 x 33
#>     bird   trk  site  cell pd.sum species test.dir1 dir1.area test.dir2
#>    <dbl> <dbl> <dbl> <dbl>  <dbl>   <dbl>     <dbl>     <dbl>     <dbl>
#>  1   194     1  3007     1   11.1       2         0      25.1       180
#>  2   194     1  3007     2  343.        2         0      41.4       180
#>  3   194     1  3062     1  298.        2        NA      NA          NA
#>  4   194     1  3062     2  358.        2         0      46.9       180
#>  5   194     1  3062     3  287.        2        NA      NA          NA
#>  6   194     3  3459     3  188.        2        NA      NA          NA
#>  7   194     5  3516     1  117.        2       135      20.9       315
#>  8   194     5  3516     2  176.        2       135      20.2       315
#>  9   194     5  3516     3  192.        2        NA      NA          NA
#> 10   194     5  3516     4  155.        2        NA      NA          NA
#> # … with 230 more rows, and 24 more variables: dir2.area <dbl>,
#> #   pref.speed <dbl>, sp80.1 <dbl>, sp80.2 <dbl>, sp80.3 <dbl>,
#> #   sp80.4 <dbl>, sp80.5 <dbl>, sp80.6 <dbl>, sp80.7 <dbl>, sp80.8 <dbl>,
#> #   sp80.9 <dbl>, sp80.10 <dbl>, sp80.11 <dbl>, sp80.12 <dbl>,
#> #   tune50 <dbl>, tune55 <dbl>, tune60 <dbl>, tune65 <dbl>, tune70 <dbl>,
#> #   tune75 <dbl>, tune80 <dbl>, tune85 <dbl>, tune90 <dbl>, tune95 <dbl>
speeds_F <- c(0.24,0.5,1,2,4,8,16,24,32,48,64,80)

Remove any rows without data (dir1.area is NA):

read_csv("./Fig3F_data.csv") %>%
  filter(!is.na(dir1.area))
#> Parsed with column specification:
#> cols(
#>   .default = col_double()
#> )
#> See spec(...) for full column specifications.
#> # A tibble: 163 x 33
#>     bird   trk  site  cell pd.sum species test.dir1 dir1.area test.dir2
#>    <dbl> <dbl> <dbl> <dbl>  <dbl>   <dbl>     <dbl>     <dbl>     <dbl>
#>  1   194     1  3007     1   11.1       2         0     25.1        180
#>  2   194     1  3007     2  343.        2         0     41.4        180
#>  3   194     1  3062     2  358.        2         0     46.9        180
#>  4   194     5  3516     1  117.        2       135     20.9        315
#>  5   194     5  3516     2  176.        2       135     20.2        315
#>  6   198     3  2990     1  320.        2       315    -12.9        135
#>  7   198     3  2990     2  340.        2       315     30.4        135
#>  8   198     5  3345     2  147.        2       135     -2.81       315
#>  9   198     5  3345     3  141.        2       135    -22.7        315
#> 10   199     1  2383     1   92.4       2        90      1.67       270
#> # … with 153 more rows, and 24 more variables: dir2.area <dbl>,
#> #   pref.speed <dbl>, sp80.1 <dbl>, sp80.2 <dbl>, sp80.3 <dbl>,
#> #   sp80.4 <dbl>, sp80.5 <dbl>, sp80.6 <dbl>, sp80.7 <dbl>, sp80.8 <dbl>,
#> #   sp80.9 <dbl>, sp80.10 <dbl>, sp80.11 <dbl>, sp80.12 <dbl>,
#> #   tune50 <dbl>, tune55 <dbl>, tune60 <dbl>, tune65 <dbl>, tune70 <dbl>,
#> #   tune75 <dbl>, tune80 <dbl>, tune85 <dbl>, tune90 <dbl>, tune95 <dbl>

Remove unnecessary columns:

read_csv("./Fig3F_data.csv") %>%
  filter(!is.na(dir1.area))  %>%
  select(starts_with("sp"))
#> Parsed with column specification:
#> cols(
#>   .default = col_double()
#> )
#> See spec(...) for full column specifications.
#> # A tibble: 163 x 13
#>    species sp80.1 sp80.2 sp80.3 sp80.4 sp80.5 sp80.6 sp80.7 sp80.8 sp80.9
#>      <dbl>  <dbl>  <dbl>  <dbl>  <dbl>  <dbl>  <dbl>  <dbl>  <dbl>  <dbl>
#>  1       2      0      0      0      0      0      0      0      0      0
#>  2       2      0      0      0      0      0      0      0      0      1
#>  3       2      0      0      0      0      0      0      0      0      1
#>  4       2      0      0      0      0      0      0      0      0      0
#>  5       2      0      0      0      0      1      0      0      0      0
#>  6       2      0      0      0      1      0      0      0      0      0
#>  7       2      0      0      0      0      0      0      0      0      0
#>  8       2      0      0      0      0      0      0      0      0      0
#>  9       2      1      0      0      0      0      0      0      0      0
#> 10       2      0      1      0      0      0      0      0      0      0
#> # … with 153 more rows, and 3 more variables: sp80.10 <dbl>,
#> #   sp80.11 <dbl>, sp80.12 <dbl>
…
  filter(!is.na(dir1.area))  %>%
  select(starts_with("sp")) %>%
  rename_all(~c("species",as.character(speeds_F))) %>%
  mutate(
    species = case_when(
      species == 1 ~ "zb",
      species == 2 ~ "hb"
    )
  )
#> Parsed with column specification:
#> cols(
#>   .default = col_double()
#> )
#> See spec(...) for full column specifications.
#> # A tibble: 163 x 13
#>    species `0.24` `0.5`   `1`   `2`   `4`   `8`  `16`  `24`  `32`  `48`
#>    <chr>    <dbl> <dbl> <dbl> <dbl> <dbl> <dbl> <dbl> <dbl> <dbl> <dbl>
#>  1 hb           0     0     0     0     0     0     0     0     0     1
#>  2 hb           0     0     0     0     0     0     0     0     1     1
#>  3 hb           0     0     0     0     0     0     0     0     1     0
#>  4 hb           0     0     0     0     0     0     0     0     0     1
#>  5 hb           0     0     0     0     1     0     0     0     0     1
#>  6 hb           0     0     0     1     0     0     0     0     0     0
#>  7 hb           0     0     0     0     0     0     0     0     0     0
#>  8 hb           0     0     0     0     0     0     0     0     0     0
#>  9 hb           1     0     0     0     0     0     0     0     0     0
#> 10 hb           0     1     0     0     0     0     0     0     0     0
#> # … with 153 more rows, and 2 more variables: `64` <dbl>, `80` <dbl>
…
